<svg width="27" height="27" viewBox="0 0 27 27" fill="none" xmlns="http://www.w3.org/2000/svg">
<path d="M13.5 25.0001C12.9477 25.0001 12.5 25.4478 12.5 26.0001C12.5 26.5523 12.9477 27.0001 13.5 27.0001V25.0001ZM13.5 2.00006C14.0523 2.00006 14.5 1.55235 14.5 1.00006C14.5 0.447776 14.0523 6.10352e-05 13.5 6.10352e-05V2.00006ZM21.5882 4.42272L21.8638 3.46144L18.1709 2.40268L20.8789 5.12762L21.5882 4.42272ZM5.41176 22.5774L5.13617 23.5387L8.82911 24.5974L6.12107 21.8725L5.41176 22.5774ZM25.7244 6.64883C26.2553 6.80104 26.8091 6.49405 26.9613 5.96316C27.1135 5.43226 26.8065 4.87849 26.2756 4.72629L25.7244 6.64883ZM1.2756 20.3513C0.744699 20.1991 0.190933 20.5061 0.0387263 21.037C-0.113481 21.5679 0.193508 22.1216 0.724405 22.2738L1.2756 20.3513ZM24.2647 13.5001C24.2647 19.9093 19.3889 25.0001 13.5 25.0001V27.0001C20.606 27.0001 26.2647 20.8979 26.2647 13.5001H24.2647ZM2.73529 13.5001C2.73529 7.09081 7.61107 2.00006 13.5 2.00006V6.10352e-05C6.394 6.10352e-05 0.735294 6.1022 0.735294 13.5001H2.73529ZM20.8789 5.12762C22.958 7.21965 24.2647 10.191 24.2647 13.5001H26.2647C26.2647 9.65957 24.7468 6.18231 22.2975 3.71781L20.8789 5.12762ZM6.12107 21.8725C4.04201 19.7805 2.73529 16.8091 2.73529 13.5001H0.735294C0.735294 17.3406 2.25324 20.8178 4.70246 23.2823L6.12107 21.8725ZM21.3126 5.38399L25.7244 6.64883L26.2756 4.72629L21.8638 3.46144L21.3126 5.38399ZM5.68736 21.6161L1.2756 20.3513L0.724405 22.2738L5.13617 23.5387L5.68736 21.6161Z" fill="white"/>
</svg>
